module gitlab.com/madfromplay/swpbot

go 1.20

require (
	github.com/go-telegram-bot-api/telegram-bot-api/v5 v5.5.1
	gorm.io/driver/mysql v1.5.4
	gorm.io/gorm v1.25.7
)

require (
	github.com/go-sql-driver/mysql v1.7.0 // indirect
	github.com/jinzhu/inflection v1.0.0 // indirect
	github.com/jinzhu/now v1.1.5 // indirect
)
